…
```
## # A tibble: 1 x 1
##   number_nas
##        <int>
## 1     528196
```

**4. Use the package `naniar` to produce a summary, including percentages, of missing data in each column for both data sets.**  

```r
naniar::miss_var_summary(amniota_na) #how many NAs with percentages
```

```
## # A tibble: 36 x 3
##    variable                       n_miss pct_miss
##    <chr>                           <int>    <dbl>
##  1 subspecies                      21322    100  
##  2 female_body_mass_at_maturity_g  21318    100. 
##  3 female_svl_at_maturity_cm       21120     99.1
##  4 fledging_mass_g                 21111     99.0
##  5 male_svl_cm                     21040     98.7
##  6 no_sex_maturity_d               20860     97.8
##  7 egg_width_mm                    20727     97.2
##  8 egg_length_mm                   20702     97.1
##  9 weaning_weight_g                20258     95.0
## 10 female_svl_cm                   20242     94.9
## # … with 26 more rows
```


```r
naniar::miss_var_summary(amphibio)
```

```
## # A tibble: 38 x 3
##    variable n_miss pct_miss
##    <chr>     <int>    <dbl>
##  1 OBS        6776    100  
##  2 Fruits     6774    100. 
##  3 Flowers    6772     99.9
##  4 Seeds      6772     99.9
##  5 Leaves     6752     99.6
##  6 Dry_cold   6735     99.4
##  7 Vert       6657     98.2
##  8 Wet_cold   6625     97.8
##  9 Crepu      6608     97.5
## 10 Dry_warm   6572     97.0
## # … with 28 more rows
```
…
```r
amphibio %>% 
  select(Family, Genus, Species, Body_size_mm) %>% 
  filter(Body_size_mm>=500)
```

```
## # A tibble: 46 x 4
##    Family           Genus          Species                      Body_size_mm
##    <chr>            <chr>          <chr>                               <dbl>
##  1 Amphiumidae      Amphiuma       Amphiuma means                      1162 
##  2 Amphiumidae      Amphiuma       Amphiuma tridactylum                1060 
##  3 Cryptobranchidae Andrias        Andrias davidianus                   900 
##  4 Cryptobranchidae Andrias        Andrias japonicus                   1360 
##  5 Cryptobranchidae Cryptobranchus Cryptobranchus alleganiensis         737.
##  6 Sirenidae        Siren          Siren intermedia                     686 
##  7 Sirenidae        Siren          Siren lacertina                      978 
##  8 Caeciliidae      Caecilia       Caecilia abitaguae                  1303 
##  9 Caeciliidae      Caecilia       Caecilia antioquiaensis             1200 
## 10 Caeciliidae      Caecilia       Caecilia attenuata                   910 
## # … with 36 more rows
```
…
