…
**7. As measured by the data, which snake species has the smallest homerange? Show all of your work, please. Look this species up online and tell me about it!** [Namaqua dwarf adder, _Bitis schneideri_](https://en.wikipedia.org/wiki/Bitis_schneideri).  

```r
snakes <- 
  homerange %>% 
  filter(taxon=="snakes") %>% 
  arrange(log10.hra)
snakes
```

```
## # A tibble: 41 x 24
##    taxon common.name class order family genus species primarymethod N    
##    <fct> <chr>       <chr> <fct> <chr>  <chr> <chr>   <chr>         <chr>
##  1 snak… namaqua dw… rept… squa… viper… bitis schnei… telemetry     11   
##  2 snak… eastern wo… rept… squa… colub… carp… viridis radiotag      10   
##  3 snak… butlers ga… rept… squa… colub… tham… butleri mark-recaptu… 1    
##  4 snak… western wo… rept… squa… colub… carp… vermis  radiotag      1    
##  5 snak… snubnosed … rept… squa… viper… vipe… latast… telemetry     7    
##  6 snak… chinese pi… rept… squa… viper… gloy… shedao… telemetry     16   
##  7 snak… ringneck s… rept… squa… colub… diad… puncta… mark-recaptu… <NA> 
##  8 snak… cottonmouth rept… squa… viper… agki… pisciv… telemetry     15   
##  9 snak… redbacked … rept… squa… colub… ooca… rufodo… telemetry     21   
## 10 snak… gopher sna… rept… squa… colub… pitu… cateni… telemetry     4    
## # … with 31 more rows, and 15 more variables: mean.mass.g <dbl>,
## #   log10.mass <dbl>, alternative.mass.reference <chr>, mean.hra.m2 <dbl>,
## #   log10.hra <dbl>, hra.reference <chr>, realm <chr>, thermoregulation <chr>,
## #   locomotion <chr>, trophic.guild <chr>, dimension <chr>, preymass <dbl>,
## #   log10.preymass <dbl>, PPMR <dbl>, prey.size.reference <chr>
```

**8. You suspect that homerange and mass are correlated in birds. We need a ratio that facilitates exploration of this prediction. First, build a new dataframe called `hra_ratio` that is limited to genus, species, mean.mass.g, log10.mass, log10.hra. Arrange it in ascending order by mean mass in grams.**  

```r
hra_ratio <- 
  homerange %>% 
  filter(taxon=="birds") %>% 
  select(genus, species, mean.mass.g, log10.mass, log10.hra) %>% 
  arrange(mean.mass.g)
hra_ratio
```

```
## # A tibble: 140 x 5
##    genus        species      mean.mass.g log10.mass log10.hra
##    <chr>        <chr>              <dbl>      <dbl>     <dbl>
##  1 regulus      regulus             5.15      0.712      4.30
##  2 regulus      ignicapillus        5.3       0.724      4.22
##  3 phylloscopus bonelli             7.5       0.875      4.54
##  4 aegithalos   caudatus            8         0.903      4.62
##  5 vireo        atricapillus        8.5       0.929      4.18
##  6 setophaga    magnolia            8.6       0.934      3.86
##  7 certhia      familiaris          8.77      0.943      4.67
##  8 sylvia       undata              8.8       0.944      3.45
##  9 setophaga    ruticilla           9         0.954      3.29
## 10 setophaga    virens              9         0.954      3.81
## # … with 130 more rows
```

**9. Replace the existing `hra_ratio` dataframe with a new dataframe that adds a column calculating the ratio of log 10 hra to log 10 mass. Call it `hra.mass.ratio`. Arrange it in descending order by mean mass in grams.**  

```r
hra_ratio <- 
  hra_ratio %>% 
  mutate(hra.mass.ratio=log10.hra/log10.mass) %>% 
  arrange(desc(mean.mass.g))
hra_ratio
```

```
## # A tibble: 140 x 6
##    genus      species      mean.mass.g log10.mass log10.hra hra.mass.ratio
##    <chr>      <chr>              <dbl>      <dbl>     <dbl>          <dbl>
##  1 struthio   camelus            88250       4.95      7.93           1.60
##  2 rhea       americana          25000       4.40      6.39           1.45
##  3 rhea       pennata            15000       4.18      7.38           1.77
##  4 aquila     chrysaetos          3000       3.48      7.44           2.14
##  5 tetrao     urogallus           2936       3.47      6.74           1.94
##  6 apteryx    australis           2320       3.37      5.67           1.68
##  7 neophron   percnopterus        2203       3.34      7.80           2.33
##  8 bubo       bubo                2191       3.34      7.20           2.16
##  9 hieraaetus fasciatus           2049       3.31      7.29           2.20
## 10 strigops   habroptilus         1941       3.29      5.29           1.61
## # … with 130 more rows
```
…
